%YAML 1.1
%TAG !u! tag:unity3d.com,2011:
--- !u!74 &7400000
AnimationClip:
  m_ObjectHideFlags: 0
  m_CorrespondingSourceObject: {fileID: 0}
  m_PrefabInstance: {fileID: 0}
  m_PrefabAsset: {fileID: 0}
  m_Name: enemy
  serializedVersion: 6
  m_Legacy: 0
  m_Compressed: 0
  m_UseHighQualityCurve: 1
  m_RotationCurves: []
  m_CompressedRotationCurves: []
  m_EulerCurves: []
  m_PositionCurves: []
  m_ScaleCurves: []
  m_FloatCurves: []
  m_PPtrCurves:
  - curve:
    - time: 0
      value: {fileID: 21300000, guid: 62fdffc49e7b800409735d7cb274b0f3, type: 3}
    - time: 0.083333336
      value: {fileID: 21300000, guid: 1cdbfd03ee154a54bbc21cd373882d05, type: 3}
    - time: 0.16666667
      value: {fileID: 21300000, guid: 418db4e012cc88343a8da75f58205d25, type: 3}
    - time: 0.25
      value: {fileID: 21300000, guid: 990d4bd10e114ab4e9580ac676d5fa40, type: 3}
    - time: 0.33333334
      value: {fileID: 21300000, guid: 2fb12de627792f4428810b47a04ac55c, type: 3}
    - time: 0.41666666
      value: {fileID: 21300000, guid: 5206ca892e7b2f74696414ddc4653a35, type: 3}
    - time: 0.5
      value: {fileID: 21300000, guid: 27f619baa5a822043a5fd9db65a6f0a2, type: 3}
    - time: 0.5833333
      value: {fileID: 21300000, guid: 2e78df10ff6b86749a806e6276ee8b40, type: 3}
    - time: 0.6666667
      value: {fileID: 21300000, guid: 547c2a8e60a687b42bfdbee67db8d860, type: 3}
    - time: 0.75
      value: {fileID: 21300000, guid: 983574783d8df724f986628c249c24bf, type: 3}
    - time: 0.8333333
      value: {fileID: 21300000, guid: 88a99e2d10bbb784bb4b3e7a699b98b0, type: 3}
    - time: 0.9166667
      value: {fileID: 21300000, guid: 34c666add0da3474ca316fc1b397e995, type: 3}
    - time: 1
      value: {fileID: 21300000, guid: 870a1b4f1bd866242bff490c4efcd321, type: 3}
    - time: 1.0833334
      value: {fileID: 21300000, guid: 8fe47b39b6d09f2499dce57cd3ac5993, type: 3}
    - time: 1.1666666
      value: {fileID: 21300000, guid: 906ce6e8d332488458144f8f2c1be2ce, type: 3}
    - time: 1.25
      value: {fileID: 21300000, guid: 14a8750eb5db8a44d813cd4bc75da7ca, type: 3}
    - time: 1.3333334
      value: {fileID: 21300000, guid: a72db0960a7d1f448bb426a0914973de, type: 3}
    - time: 1.4166666
      value: {fileID: 21300000, guid: 764c480c976bd9d4d803a47058fd423d, type: 3}
    - time: 1.5
      value: {fileID: 21300000, guid: b02a928a163c03e4c93c82d0d7aec6d9, type: 3}
    - time: 1.5833334
      value: {fileID: 21300000, guid: ee40a54e4bc9e6b4f95c314d3e3f1c33, type: 3}
    - time: 1.6666666
      value: {fileID: 21300000, guid: 827016f6983ff2b4ea23731acd14b15d, type: 3}
    - time: 1.75
      value: {fileID: 21300000, guid: 413e8c99682753b46b885993b5aa86a3, type: 3}
    - time: 1.8333334
      value: {fileID: 21300000, guid: a8b8aabc17ddbd440a83f6522ea27f05, type: 3}
    - time: 1.9166666
      value: {fileID: 21300000, guid: b39f510ff5753b744bd3d731b10bfcd3, type: 3}
    - time: 2
      value: {fileID: 21300000, guid: 87ff5b03799801a45a6fc398b512cc54, type: 3}
    - time: 2.0833333
      value: {fileID: 21300000, guid: 9011928985ac20e4895968d7d3d24cda, type: 3}
    - time: 2.1666667
      value: {fileID: 21300000, guid: 1cc482fc77ef45945b4ec78ca6e389f9, type: 3}
    attribute: m_Sprite
    path: 
    classID: 212
    script: {fileID: 0}
  m_SampleRate: 12
  m_WrapMode: 0
  m_Bounds:
    m_Center: {x: 0, y: 0, z: 0}
    m_Extent: {x: 0, y: 0, z: 0}
  m_ClipBindingConstant:
    genericBindings:
    - serializedVersion: 2
      path: 0
      attribute: 0
      script: {fileID: 0}
      typeID: 212
      customType: 23
      isPPtrCurve: 1
    pptrCurveMapping:
    - {fileID: 21300000, guid: 62fdffc49e7b800409735d7cb274b0f3, type: 3}
    - {fileID: 21300000, guid: 1cdbfd03ee154a54bbc21cd373882d05, type: 3}
    - {fileID: 21300000, guid: 418db4e012cc88343a8da75f58205d25, type: 3}
    - {fileID: 21300000, guid: 990d4bd10e114ab4e9580ac676d5fa40, type: 3}
    - {fileID: 21300000, guid: 2fb12de627792f4428810b47a04ac55c, type: 3}
    - {fileID: 21300000, guid: 5206ca892e7b2f74696414ddc4653a35, type: 3}
    - {fileID: 21300000, guid: 27f619baa5a822043a5fd9db65a6f0a2, type: 3}
    - {fileID: 21300000, guid: 2e78df10ff6b86749a806e6276ee8b40, type: 3}
    - {fileID: 21300000, guid: 547c2a8e60a687b42bfdbee67db8d860, type: 3}
    - {fileID: 21300000, guid: 983574783d8df724f986628c249c24bf, type: 3}
    - {fileID: 21300000, guid: 88a99e2d10bbb784bb4b3e7a699b98b0, type: 3}
    - {fileID: 21300000, guid: 34c666add0da3474ca316fc1b397e995, type: 3}
    - {fileID: 21300000, guid: 870a1b4f1bd866242bff490c4efcd321, type: 3}
    - {fileID: 21300000, guid: 8fe47b39b6d09f2499dce57cd3ac5993, type: 3}
    - {fileID: 21300000, guid: 906ce6e8d332488458144f8f2c1be2ce, type: 3}
    - {fileID: 21300000, guid: 14a8750eb5db8a44d813cd4bc75da7ca, type: 3}
    - {fileID: 21300000, guid: a72db0960a7d1f448bb426a0914973de, type: 3}
    - {fileID: 21300000, guid: 764c480c976bd9d4d803a47058fd423d, type: 3}
    - {fileID: 21300000, guid: b02a928a163c03e4c93c82d0d7aec6d9, type: 3}
    - {fileID: 21300000, guid: ee40a54e4bc9e6b4f95c314d3e3f1c33, type: 3}
    - {fileID: 21300000, guid: 827016f6983ff2b4ea23731acd14b15d, type: 3}
    - {fileID: 21300000, guid: 413e8c99682753b46b885993b5aa86a3, type: 3}
    - {fileID: 21300000, guid: a8b8aabc17ddbd440a83f6522ea27f05, type: 3}
    - {fileID: 21300000, guid: b39f510ff5753b744bd3d731b10bfcd3, type: 3}
    - {fileID: 21300000, guid: 87ff5b03799801a45a6fc398b512cc54, type: 3}
    - {fileID: 21300000, guid: 9011928985ac20e4895968d7d3d24cda, type: 3}
    - {fileID: 21300000, guid: 1cc482fc77ef45945b4ec78ca6e389f9, type: 3}
  m_AnimationClipSettings:
    serializedVersion: 2
    m_AdditiveReferencePoseClip: {fileID: 0}
    m_AdditiveReferencePoseTime: 0
    m_StartTime: 0
    m_StopTime: 2.25
    m_OrientationOffsetY: 0
    m_Level: 0
    m_CycleOffset: 0
    m_HasAdditiveReferencePose: 0
    m_LoopTime: 1
    m_LoopBlend: 0
    m_LoopBlendOrientation: 0
    m_LoopBlendPositionY: 0
    m_LoopBlendPositionXZ: 0
    m_KeepOriginalOrientation: 0
    m_KeepOriginalPositionY: 1
    m_KeepOriginalPositionXZ: 0
    m_HeightFromFeet: 0
    m_Mirror: 0
  m_EditorCurves: []
  m_EulerEditorCurves: []
  m_HasGenericRootTransform: 0
  m_HasMotionFloatCurves: 0
  m_Events: []
