%YAML 1.1
%TAG !u! tag:unity3d.com,2011:
--- !u!74 &7400000
AnimationClip:
  m_ObjectHideFlags: 0
  m_CorrespondingSourceObject: {fileID: 0}
  m_PrefabInstance: {fileID: 0}
  m_PrefabAsset: {fileID: 0}
  m_Name: Bullet_Flying
  serializedVersion: 6
  m_Legacy: 0
  m_Compressed: 0
  m_UseHighQualityCurve: 1
  m_RotationCurves: []
  m_CompressedRotationCurves: []
  m_EulerCurves: []
  m_PositionCurves: []
  m_ScaleCurves: []
  m_FloatCurves: []
  m_PPtrCurves:
  - curve:
    - time: 0
      value: {fileID: 21300000, guid: 35d178b3e2e22094bb56b2ee2a0e71f4, type: 3}
    - time: 0.083333336
      value: {fileID: 21300000, guid: f3aa7566d93cc424da2f13c75921b6d8, type: 3}
    - time: 0.16666667
      value: {fileID: 21300000, guid: 175934089b7bd3a479d8c2088c3a5722, type: 3}
    - time: 0.25
      value: {fileID: 21300000, guid: e1251bf4b56788f4f9e1b70f3286795f, type: 3}
    - time: 0.33333334
      value: {fileID: 21300000, guid: cb89b13d849ec1746adb09075efb7c5d, type: 3}
    - time: 0.41666666
      value: {fileID: 21300000, guid: 4707eb21eacc053439f4c85b83c4b2df, type: 3}
    - time: 0.5
      value: {fileID: 21300000, guid: 699358e0b71dcaa4d95bf701a3eb3c3f, type: 3}
    - time: 0.5833333
      value: {fileID: 21300000, guid: 5d8d3d676ce595d45af4ae96f882827c, type: 3}
    - time: 0.6666667
      value: {fileID: 21300000, guid: 93af6cc302c69794e8a1316ce2cc44ec, type: 3}
    - time: 0.75
      value: {fileID: 21300000, guid: d3b6379340d0a224b954ae4cb36add9d, type: 3}
    - time: 0.8333333
      value: {fileID: 21300000, guid: 3c2f8a795218ce647819127c3e906dc6, type: 3}
    - time: 0.9166667
      value: {fileID: 21300000, guid: 66cdea402a2b0b646b99d2dda7f199e4, type: 3}
    - time: 1
      value: {fileID: 21300000, guid: 150e3b5ed28a7f747bcd790843927c9b, type: 3}
    - time: 1.0833334
      value: {fileID: 21300000, guid: ce5a1ee4b76b4ef48a68062e4aaf1da9, type: 3}
    - time: 1.1666666
      value: {fileID: 21300000, guid: 2df0b5c8e1d7bd740a991d8573c018e5, type: 3}
    attribute: m_Sprite
    path: 
    classID: 212
    script: {fileID: 0}
  m_SampleRate: 12
  m_WrapMode: 0
  m_Bounds:
    m_Center: {x: 0, y: 0, z: 0}
    m_Extent: {x: 0, y: 0, z: 0}
  m_ClipBindingConstant:
    genericBindings:
    - serializedVersion: 2
      path: 0
      attribute: 0
      script: {fileID: 0}
      typeID: 212
      customType: 23
      isPPtrCurve: 1
    pptrCurveMapping:
    - {fileID: 21300000, guid: 35d178b3e2e22094bb56b2ee2a0e71f4, type: 3}
    - {fileID: 21300000, guid: f3aa7566d93cc424da2f13c75921b6d8, type: 3}
    - {fileID: 21300000, guid: 175934089b7bd3a479d8c2088c3a5722, type: 3}
    - {fileID: 21300000, guid: e1251bf4b56788f4f9e1b70f3286795f, type: 3}
    - {fileID: 21300000, guid: cb89b13d849ec1746adb09075efb7c5d, type: 3}
    - {fileID: 21300000, guid: 4707eb21eacc053439f4c85b83c4b2df, type: 3}
    - {fileID: 21300000, guid: 699358e0b71dcaa4d95bf701a3eb3c3f, type: 3}
    - {fileID: 21300000, guid: 5d8d3d676ce595d45af4ae96f882827c, type: 3}
    - {fileID: 21300000, guid: 93af6cc302c69794e8a1316ce2cc44ec, type: 3}
    - {fileID: 21300000, guid: d3b6379340d0a224b954ae4cb36add9d, type: 3}
    - {fileID: 21300000, guid: 3c2f8a795218ce647819127c3e906dc6, type: 3}
    - {fileID: 21300000, guid: 66cdea402a2b0b646b99d2dda7f199e4, type: 3}
    - {fileID: 21300000, guid: 150e3b5ed28a7f747bcd790843927c9b, type: 3}
    - {fileID: 21300000, guid: ce5a1ee4b76b4ef48a68062e4aaf1da9, type: 3}
    - {fileID: 21300000, guid: 2df0b5c8e1d7bd740a991d8573c018e5, type: 3}
  m_AnimationClipSettings:
    serializedVersion: 2
    m_AdditiveReferencePoseClip: {fileID: 0}
    m_AdditiveReferencePoseTime: 0
    m_StartTime: 0
    m_StopTime: 1.25
    m_OrientationOffsetY: 0
    m_Level: 0
    m_CycleOffset: 0
    m_HasAdditiveReferencePose: 0
    m_LoopTime: 1
    m_LoopBlend: 0
    m_LoopBlendOrientation: 0
    m_LoopBlendPositionY: 0
    m_LoopBlendPositionXZ: 0
    m_KeepOriginalOrientation: 0
    m_KeepOriginalPositionY: 1
    m_KeepOriginalPositionXZ: 0
    m_HeightFromFeet: 0
    m_Mirror: 0
  m_EditorCurves: []
  m_EulerEditorCurves: []
  m_HasGenericRootTransform: 0
  m_HasMotionFloatCurves: 0
  m_Events: []
