%YAML 1.1
%TAG !u! tag:unity3d.com,2011:
--- !u!74 &7400000
AnimationClip:
  m_ObjectHideFlags: 0
  m_CorrespondingSourceObject: {fileID: 0}
  m_PrefabInstance: {fileID: 0}
  m_PrefabAsset: {fileID: 0}
  m_Name: Player_Fixed_Jump
  serializedVersion: 6
  m_Legacy: 0
  m_Compressed: 0
  m_UseHighQualityCurve: 1
  m_RotationCurves: []
  m_CompressedRotationCurves: []
  m_EulerCurves: []
  m_PositionCurves: []
  m_ScaleCurves: []
  m_FloatCurves: []
  m_PPtrCurves:
  - curve:
    - time: 0
      value: {fileID: 21300000, guid: dee393e66fb629e45a0c0580399899d9, type: 3}
    - time: 0.083333336
      value: {fileID: 21300000, guid: ad809fa782bda9b4a899e18b42e12b46, type: 3}
    - time: 0.16666667
      value: {fileID: 21300000, guid: 5aae3a9060d043044b621575c62183f9, type: 3}
    - time: 0.25
      value: {fileID: 21300000, guid: 871af4f0d040ad54ead40c1ceb11e9f8, type: 3}
    - time: 0.33333334
      value: {fileID: 21300000, guid: 786ca71de6b0a114383ea8a02da3e34e, type: 3}
    - time: 0.41666666
      value: {fileID: 21300000, guid: 5a010d347d1a80043a4055f643d5474a, type: 3}
    - time: 0.5
      value: {fileID: 21300000, guid: a5a9ebdee40f56144bf4fc61864016ab, type: 3}
    - time: 0.5833333
      value: {fileID: 21300000, guid: 42ffd17263a10ab438128318e65e9ca1, type: 3}
    - time: 0.6666667
      value: {fileID: 21300000, guid: 18bf988f41b84844e973011756e7ea4c, type: 3}
    - time: 0.75
      value: {fileID: 21300000, guid: 24fb8c0e905a9e945b0bfa94117ce1e2, type: 3}
    - time: 0.8333333
      value: {fileID: 21300000, guid: 1317f05479a214f4f8d2ed077e587c5a, type: 3}
    - time: 0.9166667
      value: {fileID: 21300000, guid: 27da32afa3530bd43ad02b4a687cae32, type: 3}
    - time: 1
      value: {fileID: 21300000, guid: c773b14c6adfb874b88c31d0a1fffdc5, type: 3}
    - time: 1.0833334
      value: {fileID: 21300000, guid: 6fd4799644a00fe418fd4aab2536690f, type: 3}
    - time: 1.1666666
      value: {fileID: 21300000, guid: 96194725ce1b1214f8f1688cf4c685fc, type: 3}
    - time: 1.25
      value: {fileID: 21300000, guid: 89c0febb565a4e34abfad12ec9982f23, type: 3}
    - time: 1.3333334
      value: {fileID: 21300000, guid: fbd0b185f43c4e6449895e69cda0a62a, type: 3}
    - time: 1.4166666
      value: {fileID: 21300000, guid: aa212fe91976f7e468384c453a54b446, type: 3}
    - time: 1.5
      value: {fileID: 21300000, guid: ac51072034026014da7b5fc6080c455e, type: 3}
    - time: 1.5833334
      value: {fileID: 21300000, guid: 7b68a0981f9c3d748be4a94aa11ebb94, type: 3}
    - time: 1.6666666
      value: {fileID: 21300000, guid: 6067230dda880a9468c2253c7117c5d5, type: 3}
    - time: 1.75
      value: {fileID: 21300000, guid: 9e78f1a08467ab847a97ee8aab9ba22c, type: 3}
    - time: 1.8333334
      value: {fileID: 21300000, guid: 298c65775ee511944923b5f593e7c49a, type: 3}
    - time: 1.9166666
      value: {fileID: 21300000, guid: 7d05f57c0c8ec9d479e9f8318b6a66be, type: 3}
    - time: 2
      value: {fileID: 21300000, guid: d7df3f7eb6edbb94aad9efee82004132, type: 3}
    - time: 2.0833333
      value: {fileID: 21300000, guid: 5e1be34c31db4894c945f4d0ba813370, type: 3}
    - time: 2.1666667
      value: {fileID: 21300000, guid: 68e58c3992b1ca640b69b1b03411f290, type: 3}
    - time: 2.25
      value: {fileID: 21300000, guid: 1f8a9413a3d058445bf5e3d0bcd8c4f5, type: 3}
    - time: 2.3333333
      value: {fileID: 21300000, guid: dc71feec6a0e2a242bd76a7b4a4b28e0, type: 3}
    - time: 2.4166667
      value: {fileID: 21300000, guid: 3bd2290dd06cf544c877cd074bc67cf1, type: 3}
    - time: 2.5
      value: {fileID: 21300000, guid: b0d0b7c024efa3d43bf8d5362a9dba83, type: 3}
    - time: 2.5833333
      value: {fileID: 21300000, guid: 5b4b73d18859a0a40920a3f2bb9f3896, type: 3}
    - time: 2.6666667
      value: {fileID: 21300000, guid: 81cc62bc4b217e447831f2a7ff04c0e5, type: 3}
    - time: 2.75
      value: {fileID: 21300000, guid: cecf73e2cbe3e5e45ac778bc0f4e0919, type: 3}
    - time: 2.8333333
      value: {fileID: 21300000, guid: f94a5b6b99115f5448ddf2c31600713a, type: 3}
    - time: 2.9166667
      value: {fileID: 21300000, guid: 1c658abd507c11c4a91cd3ac4f4ae376, type: 3}
    - time: 3
      value: {fileID: 21300000, guid: 45878ae71087bd042937f15d694a42d1, type: 3}
    - time: 3.0833333
      value: {fileID: 21300000, guid: 4a49a9627ac559246a9290d7d147cfa1, type: 3}
    - time: 3.1666667
      value: {fileID: 21300000, guid: c25085defbc57e846b1163607bd77331, type: 3}
    - time: 3.25
      value: {fileID: 21300000, guid: 0f2db6aae7cd01a41a085f1def1ff8af, type: 3}
    - time: 3.3333333
      value: {fileID: 21300000, guid: 3c45ce99f004e2d41abcfa5988084abe, type: 3}
    - time: 3.4166667
      value: {fileID: 21300000, guid: 1d26b6dd821d5834fadf2e95222a4ba8, type: 3}
    attribute: m_Sprite
    path: 
    classID: 212
    script: {fileID: 0}
  m_SampleRate: 12
  m_WrapMode: 0
  m_Bounds:
    m_Center: {x: 0, y: 0, z: 0}
    m_Extent: {x: 0, y: 0, z: 0}
  m_ClipBindingConstant:
    genericBindings:
    - serializedVersion: 2
      path: 0
      attribute: 0
      script: {fileID: 0}
      typeID: 212
      customType: 23
      isPPtrCurve: 1
    pptrCurveMapping:
    - {fileID: 21300000, guid: dee393e66fb629e45a0c0580399899d9, type: 3}
    - {fileID: 21300000, guid: ad809fa782bda9b4a899e18b42e12b46, type: 3}
    - {fileID: 21300000, guid: 5aae3a9060d043044b621575c62183f9, type: 3}
    - {fileID: 21300000, guid: 871af4f0d040ad54ead40c1ceb11e9f8, type: 3}
    - {fileID: 21300000, guid: 786ca71de6b0a114383ea8a02da3e34e, type: 3}
    - {fileID: 21300000, guid: 5a010d347d1a80043a4055f643d5474a, type: 3}
    - {fileID: 21300000, guid: a5a9ebdee40f56144bf4fc61864016ab, type: 3}
    - {fileID: 21300000, guid: 42ffd17263a10ab438128318e65e9ca1, type: 3}
    - {fileID: 21300000, guid: 18bf988f41b84844e973011756e7ea4c, type: 3}
    - {fileID: 21300000, guid: 24fb8c0e905a9e945b0bfa94117ce1e2, type: 3}
    - {fileID: 21300000, guid: 1317f05479a214f4f8d2ed077e587c5a, type: 3}
    - {fileID: 21300000, guid: 27da32afa3530bd43ad02b4a687cae32, type: 3}
    - {fileID: 21300000, guid: c773b14c6adfb874b88c31d0a1fffdc5, type: 3}
    - {fileID: 21300000, guid: 6fd4799644a00fe418fd4aab2536690f, type: 3}
    - {fileID: 21300000, guid: 96194725ce1b1214f8f1688cf4c685fc, type: 3}
    - {fileID: 21300000, guid: 89c0febb565a4e34abfad12ec9982f23, type: 3}
    - {fileID: 21300000, guid: fbd0b185f43c4e6449895e69cda0a62a, type: 3}
    - {fileID: 21300000, guid: aa212fe91976f7e468384c453a54b446, type: 3}
    - {fileID: 21300000, guid: ac51072034026014da7b5fc6080c455e, type: 3}
    - {fileID: 21300000, guid: 7b68a0981f9c3d748be4a94aa11ebb94, type: 3}
    - {fileID: 21300000, guid: 6067230dda880a9468c2253c7117c5d5, type: 3}
    - {fileID: 21300000, guid: 9e78f1a08467ab847a97ee8aab9ba22c, type: 3}
    - {fileID: 21300000, guid: 298c65775ee511944923b5f593e7c49a, type: 3}
    - {fileID: 21300000, guid: 7d05f57c0c8ec9d479e9f8318b6a66be, type: 3}
    - {fileID: 21300000, guid: d7df3f7eb6edbb94aad9efee82004132, type: 3}
    - {fileID: 21300000, guid: 5e1be34c31db4894c945f4d0ba813370, type: 3}
    - {fileID: 21300000, guid: 68e58c3992b1ca640b69b1b03411f290, type: 3}
    - {fileID: 21300000, guid: 1f8a9413a3d058445bf5e3d0bcd8c4f5, type: 3}
    - {fileID: 21300000, guid: dc71feec6a0e2a242bd76a7b4a4b28e0, type: 3}
    - {fileID: 21300000, guid: 3bd2290dd06cf544c877cd074bc67cf1, type: 3}
    - {fileID: 21300000, guid: b0d0b7c024efa3d43bf8d5362a9dba83, type: 3}
    - {fileID: 21300000, guid: 5b4b73d18859a0a40920a3f2bb9f3896, type: 3}
    - {fileID: 21300000, guid: 81cc62bc4b217e447831f2a7ff04c0e5, type: 3}
    - {fileID: 21300000, guid: cecf73e2cbe3e5e45ac778bc0f4e0919, type: 3}
    - {fileID: 21300000, guid: f94a5b6b99115f5448ddf2c31600713a, type: 3}
    - {fileID: 21300000, guid: 1c658abd507c11c4a91cd3ac4f4ae376, type: 3}
    - {fileID: 21300000, guid: 45878ae71087bd042937f15d694a42d1, type: 3}
    - {fileID: 21300000, guid: 4a49a9627ac559246a9290d7d147cfa1, type: 3}
    - {fileID: 21300000, guid: c25085defbc57e846b1163607bd77331, type: 3}
    - {fileID: 21300000, guid: 0f2db6aae7cd01a41a085f1def1ff8af, type: 3}
    - {fileID: 21300000, guid: 3c45ce99f004e2d41abcfa5988084abe, type: 3}
    - {fileID: 21300000, guid: 1d26b6dd821d5834fadf2e95222a4ba8, type: 3}
  m_AnimationClipSettings:
    serializedVersion: 2
    m_AdditiveReferencePoseClip: {fileID: 0}
    m_AdditiveReferencePoseTime: 0
    m_StartTime: 0
    m_StopTime: 3.5
    m_OrientationOffsetY: 0
    m_Level: 0
    m_CycleOffset: 0
    m_HasAdditiveReferencePose: 0
    m_LoopTime: 1
    m_LoopBlend: 0
    m_LoopBlendOrientation: 0
    m_LoopBlendPositionY: 0
    m_LoopBlendPositionXZ: 0
    m_KeepOriginalOrientation: 0
    m_KeepOriginalPositionY: 1
    m_KeepOriginalPositionXZ: 0
    m_HeightFromFeet: 0
    m_Mirror: 0
  m_EditorCurves: []
  m_EulerEditorCurves: []
  m_HasGenericRootTransform: 0
  m_HasMotionFloatCurves: 0
  m_Events: []
